<svg width="16" height="16" viewBox="0 0 16 16" fill="none" xmlns="http://www.w3.org/2000/svg">
<path d="M7.90002 3.0948C6.69981 -2.52108 -2.59119 1.90389 1.76037 7.60175C6.11193 13.2996 8.40002 15.4908 8.40002 15.4908" />
<path d="M7.89415 3.0948C9.09435 -2.52108 18.7304 1.90389 14.3789 7.60175C10.0273 13.2996 7.70001 15.5 7.70001 15.5" />
<path d="M7.39099 2.70752L8.4043 2.70757L8.38337 3.24079H7.39099V2.70752Z" fill="white"/>
</svg>
